…
## Usage

The package has one key function: `read_weo()`.

You can use it like so:

``` r
library(readweo)
weo <- read_weo("Oct 2022")
weo
#> # A tibble: 308,014 × 13
#>    weo_count…¹ iso   weo_s…² country subje…³ subje…⁴ units scale count…⁵ estim…⁶
#>    <chr>       <chr> <chr>   <chr>   <chr>   <chr>   <chr> <chr> <chr>     <dbl>
#>  1 512         AFG   NGDP_R  Afghan… Gross … Expres… Nati… Bill… Source…    2020
#>  2 512         AFG   NGDP_R  Afghan… Gross … Expres… Nati… Bill… Source…    2020
#>  3 512         AFG   NGDP_R  Afghan… Gross … Expres… Nati… Bill… Source…    2020
#>  4 512         AFG   NGDP_R  Afghan… Gross … Expres… Nati… Bill… Source…    2020
#>  5 512         AFG   NGDP_R  Afghan… Gross … Expres… Nati… Bill… Source…    2020
#>  6 512         AFG   NGDP_R  Afghan… Gross … Expres… Nati… Bill… Source…    2020
#>  7 512         AFG   NGDP_R  Afghan… Gross … Expres… Nati… Bill… Source…    2020
#>  8 512         AFG   NGDP_R  Afghan… Gross … Expres… Nati… Bill… Source…    2020
#>  9 512         AFG   NGDP_R  Afghan… Gross … Expres… Nati… Bill… Source…    2020
#> 10 512         AFG   NGDP_R  Afghan… Gross … Expres… Nati… Bill… Source…    2020
#> # … with 308,004 more rows, 3 more variables: year <dbl>, value <dbl>,
#> #   weo_date <date>, and abbreviated variable names ¹​weo_country_code,
#> #   ²​weo_subject_code, ³​subject_descriptor, ⁴​subject_notes,
#> #   ⁵​country_series_specific_notes, ⁶​estimates_start_after
```
…
